<?xml version="1.0" encoding="UTF-8"?>
<svg width="20px" height="32px" viewBox="0 0 20 32" version="1.1" xmlns="http://www.w3.org/2000/svg" xmlns:xlink="http://www.w3.org/1999/xlink">
    <!-- Generator: Sketch 51.3 (57544) - http://www.bohemiancoding.com/sketch -->
    <title>marker</title>
    <desc>Created with Sketch.</desc>
    <defs></defs>
    <g id="Page-1" stroke="none" stroke-width="1" fill="none" fill-rule="evenodd">
        <g id="marker" transform="translate(-1.000000, -1.000000)" fill="#4889FB" fill-rule="nonzero">
            <path d="M18.1,3.9 C14.2,1.33226763e-15 7.8,1.33226763e-15 3.9,3.9 C-4.4408921e-16,7.8 -4.4408921e-16,14.2 3.9,18.1 C3.9,18.1 11,25 11,33 C11,25 18.1,18.1 18.1,18.1 C22,14.2 22,7.8 18.1,3.9 Z M11,15 C8.8,15 7,13.2 7,11 C7,8.8 8.8,7 11,7 C13.2,7 15,8.8 15,11 C15,13.2 13.2,15 11,15 Z" id="Shape"></path>
        </g>
    </g>
</svg>