<?xml version="1.0" encoding="UTF-8"?>
<svg width="221px" height="32px" viewBox="0 0 221 32" version="1.1" xmlns="http://www.w3.org/2000/svg" xmlns:xlink="http://www.w3.org/1999/xlink">
    <!-- Generator: Sketch 50.2 (55047) - http://www.bohemiancoding.com/sketch -->
    <title>gmf-sprite</title>
    <desc>Created with Sketch.</desc>
    <defs></defs>
    <g id="gmf-sprite" stroke="none" stroke-width="1" fill="none" fill-rule="evenodd">
        <g id="placeholder-(1)" fill="#4889FB" fill-rule="nonzero">
            <path d="M11.25,0 C5.04675,0 0,5.04675 0,11.25 C0,13.345875 0.5805625,15.39125 1.6793125,17.16575 L10.609625,31.5568125 C10.7806875,31.8325 11.0820625,32 11.4061875,32 C11.4086875,32 11.411125,32 11.413625,32 C11.7405625,31.9974375 12.0425625,31.82475 12.2105,31.54425 L20.9131875,17.01375 C21.9513125,15.27675 22.5,13.2836875 22.5,11.25 C22.5,5.04675 17.45325,0 11.25,0 Z M19.304125,16.051125 L11.392,29.261625 L3.2729375,16.177875 C2.358375,14.700875 1.8625,12.996875 1.8625,11.25 C1.8625,6.080625 6.080625,1.8625 11.25,1.8625 C16.419375,1.8625 20.63125,6.080625 20.63125,11.25 C20.63125,12.9450625 20.1680625,14.6055 19.304125,16.051125 Z" id="Shape"></path>
            <path d="M11.25,5.625 C8.148375,5.625 5.625,8.148375 5.625,11.25 C5.625,14.3318125 8.1073125,16.875 11.25,16.875 C14.4314375,16.875 16.875,14.2979375 16.875,11.25 C16.875,8.148375 14.351625,5.625 11.25,5.625 Z M11.25,15.0125 C9.1714375,15.0125 7.4875,13.3229375 7.4875,11.25 C7.4875,9.18225 9.18225,7.4875 11.25,7.4875 C13.31775,7.4875 15.00625,9.18225 15.00625,11.25 C15.00625,13.2926875 13.3615,15.0125 11.25,15.0125 Z" id="Shape"></path>
        </g>
        <g id="phone-call-(4)-copy-2" transform="translate(38.000000, 4.000000)" fill="#4889FB" fill-rule="nonzero">
            <path d="M22.7289583,16.0947581 C22.1396396,15.483871 21.4288119,15.1572581 20.675456,15.1572581 C19.9281756,15.1572581 19.2112724,15.4778226 18.5976519,16.0887097 L16.6778095,17.9939516 C16.5198478,17.9092742 16.3618861,17.8306452 16.2099998,17.7520161 C15.9912836,17.6431452 15.7847183,17.5403226 15.6085302,17.4314516 C13.8101969,16.2943548 12.1759007,14.8125 10.6084344,12.8951613 C9.84900311,11.9395161 9.33866527,11.1350806 8.96806278,10.3185484 C9.46624973,9.86491935 9.92798397,9.39314516 10.3775673,8.93951613 C10.5476799,8.77016129 10.7177925,8.59475806 10.8879052,8.42540323 C12.1637498,7.15524194 12.1637498,5.51008065 10.8879052,4.23991935 L9.22930716,2.58870968 C9.04096819,2.40120968 8.84655377,2.20766129 8.66429026,2.0141129 C8.29976322,1.6391129 7.91700984,1.25201613 7.52210555,0.889112903 C6.93278685,0.308467742 6.22803459,0 5.48682962,0 C4.74562465,0 4.02872149,0.308467742 3.42117643,0.889112903 C3.41510098,0.89516129 3.41510098,0.89516129 3.40902553,0.901209677 L1.34337235,2.97580645 C0.565714679,3.75 0.122206789,4.69354839 0.0249995803,5.78830645 C-0.120811233,7.55443548 0.401677514,9.19959677 0.80265725,10.2762097 C1.78688024,12.9193548 3.25713927,15.3689516 5.45037692,17.9939516 C8.11142426,21.1572581 11.3131867,23.6552419 14.9706079,25.4153226 C16.3679615,26.0745968 18.2331249,26.8548387 20.3170044,26.9879032 C20.4445889,26.9939516 20.5782488,27 20.6997578,27 C22.1031869,27 23.2818243,26.4979839 24.2052927,25.5 C24.2113682,25.4879032 24.2235191,25.4818548 24.2295946,25.4697581 C24.545518,25.0887097 24.910045,24.7439516 25.2927984,24.375 C25.5540428,24.1270161 25.8213626,23.8669355 26.082607,23.5947581 C26.6840766,22.9717742 27,22.2459677 27,21.5020161 C27,20.7520161 26.6780011,20.0322581 26.0643806,19.4274194 L22.7289583,16.0947581 Z M24.9039696,22.4637097 C24.8978941,22.4637097 24.8978941,22.4697581 24.9039696,22.4637097 C24.667027,22.7177419 24.424009,22.9475806 24.1627646,23.2016129 C23.7678603,23.5766129 23.3668806,23.9697581 22.9902026,24.4112903 C22.3765821,25.0645161 21.6536035,25.3729839 20.7058332,25.3729839 C20.6147015,25.3729839 20.5174943,25.3729839 20.4263625,25.3669355 C18.6219537,25.2520161 16.9451293,24.5504032 15.6875111,23.9516129 C12.2488061,22.2943548 9.22930716,19.9415323 6.72014608,16.9596774 C4.64841745,14.4737903 3.26321472,12.1754032 2.34582169,9.70766129 C1.78080479,8.2016129 1.57423947,7.02822581 1.66537123,5.92137097 C1.72612573,5.21370968 1.99952101,4.62701613 2.5037834,4.125 L4.57551204,2.0625 C4.87320912,1.78427419 5.18913254,1.63306452 5.49898052,1.63306452 C5.88173391,1.63306452 6.19158188,1.86290323 6.3859963,2.05645161 C6.39207175,2.0625 6.3981472,2.06854839 6.40422265,2.07459677 C6.77482514,2.41935484 7.12720127,2.77620968 7.49780375,3.15725806 C7.68614272,3.35080645 7.88055713,3.54435484 8.07497155,3.74395161 L9.73356955,5.39516129 C10.3775673,6.03629032 10.3775673,6.62903226 9.73356955,7.27016129 C9.55738149,7.44556452 9.38726887,7.62096774 9.2110808,7.79032258 C8.70074296,8.31048387 8.21470691,8.79435484 7.68614272,9.26612903 C7.67399182,9.27822581 7.66184092,9.28427419 7.65576546,9.29637097 C7.13327672,9.81653226 7.23048393,10.3245968 7.33984204,10.6693548 C7.34591749,10.6875 7.35199294,10.7056452 7.35806839,10.7237903 C7.78942538,11.7641129 8.39697043,12.7439516 9.32043891,13.9112903 L9.32651436,13.9173387 C11.0033387,15.9737903 12.7712948,17.5766129 14.7215144,18.8044355 C14.9706079,18.9616935 15.2257768,19.0887097 15.4687949,19.2096774 C15.6875111,19.3185484 15.8940764,19.421371 16.0702645,19.5302419 C16.0945663,19.5423387 16.1188681,19.5604839 16.1431699,19.5725806 C16.3497352,19.6754032 16.5441496,19.7237903 16.7446395,19.7237903 C17.2489019,19.7237903 17.5648253,19.4092742 17.668108,19.3064516 L19.745912,17.2379032 C19.9524774,17.0322581 20.2805517,16.7842742 20.6633051,16.7842742 C21.039983,16.7842742 21.349831,17.0201613 21.53817,17.2258065 C21.5442454,17.2318548 21.5442454,17.2318548 21.5503209,17.2379032 L24.8978941,20.5705645 C25.5236655,21.1875 25.5236655,21.8225806 24.9039696,22.4637097 Z" id="Shape"></path>
        </g>
        <g id="envelope-(2)" transform="translate(80.000000, 6.000000)" fill="#4889FB" fill-rule="nonzero">
            <path d="M23.2847561,0.0406504065 L3.24329268,0.0406504065 C1.45426829,0.0406504065 0,1.47696477 0,3.24390244 L0,16.7723577 C0,18.5392954 1.45426829,19.9756098 3.24329268,19.9756098 L23.2792683,19.9756098 C25.0682927,19.9756098 26.522561,18.5392954 26.522561,16.7723577 L26.522561,3.24932249 C26.5280488,1.48238482 25.0737805,0.0406504065 23.2847561,0.0406504065 Z M25.0463415,16.7723577 C25.0463415,17.7317073 24.2560976,18.5121951 23.2847561,18.5121951 L3.24329268,18.5121951 C2.27195122,18.5121951 1.48170732,17.7317073 1.48170732,16.7723577 L1.48170732,3.24932249 C1.48170732,2.2899729 2.27195122,1.50948509 3.24329268,1.50948509 L23.2792683,1.50948509 C24.2506098,1.50948509 25.0408537,2.2899729 25.0408537,3.24932249 L25.0408537,16.7723577 L25.0463415,16.7723577 Z" id="Shape"></path>
            <path d="M16.7268293,9.8401084 L23.2134146,4.09485095 C23.5152439,3.82384824 23.5426829,3.36314363 23.2682927,3.0596206 C22.9939024,2.76151762 22.527439,2.73441734 22.220122,3.00542005 L13.275,10.9349593 L11.529878,9.39566396 C11.5243902,9.3902439 11.5189024,9.38482385 11.5189024,9.37940379 C11.4804878,9.34146341 11.4420732,9.30894309 11.3981707,9.27642276 L4.29695122,3 C3.98963415,2.72899729 3.52317073,2.75609756 3.24878049,3.0596206 C2.97439024,3.36314363 3.00182927,3.82384824 3.30914634,4.09485095 L9.87256098,9.88888889 L3.33658537,15.9322493 C3.0402439,16.2086721 3.02378049,16.6693767 3.30365854,16.9674797 C3.45182927,17.1192412 3.64939024,17.200542 3.84695122,17.200542 C4.02804878,17.200542 4.20914634,17.1355014 4.35182927,17.0054201 L10.9865854,10.8753388 L12.7865854,12.4634146 C12.9292683,12.5880759 13.104878,12.6476965 13.2804878,12.6476965 C13.4560976,12.6476965 13.6371951,12.5826558 13.7743902,12.4579946 L15.6237805,10.8211382 L22.220122,17.0108401 C22.3628049,17.1463415 22.5493902,17.2113821 22.7304878,17.2113821 C22.9280488,17.2113821 23.120122,17.1355014 23.2682927,16.9837398 C23.5481707,16.6910569 23.5371951,16.2249322 23.2408537,15.9485095 L16.7268293,9.8401084 Z" id="Shape"></path>
        </g>
        <g id="clock-(3)" transform="translate(122.000000, 6.000000)" fill="#4889FB" fill-rule="nonzero">
            <path d="M24.0021242,7.6313548 C22.6840686,4.55675011 20.444281,2.32067769 17.3457108,0.998423971 C15.797018,0.33756278 14.1745098,0 12.4794526,0 C10.7846814,0 9.17414216,0.334374755 7.62716503,0.998423971 C4.55424837,2.31716269 2.30453431,4.55180459 0.984150327,7.6313548 C0.32250817,9.17419531 0,10.7905648 0,12.486267 C0,14.1822962 0.32250817,15.8120717 0.984150327,17.3552392 C2.30453431,20.4347894 4.55453431,22.6828373 7.62716503,24.001903 C9.1744281,24.6659522 10.7846405,25 12.4794526,25 C14.1742647,25 15.797018,24.6624372 17.3454657,24.001903 C20.4440359,22.6796084 22.6838235,20.4295577 24.002165,17.3552392 C24.6658088,15.8071261 25,14.1822962 25,12.486267 C25,10.7905648 24.6660948,9.17942694 24.0021242,7.6313548 Z M22.0066993,18.011727 C21.0254493,19.6954537 19.6811683,21.0311952 17.9881127,22.0187881 C16.3053105,23.0005771 14.4614788,23.4957019 12.4797386,23.4957019 C10.989951,23.4957019 9.56838235,23.2086162 8.21503268,22.6204256 C6.86172386,22.0325211 5.6932598,21.2596295 4.71580882,20.2819277 C3.73835784,19.3039397 2.96037582,18.1234305 2.37863562,16.7670486 C1.79861111,15.4156122 1.51752451,13.9771999 1.51752451,12.4863078 C1.51752451,10.5031929 2.00449346,8.66770809 2.98022876,6.98864082 C3.95943627,5.30344274 5.30400327,3.9662707 6.98508987,2.98153888 C8.66589052,1.99684794 10.4977533,1.50433898 12.4794526,1.50433898 C14.4614788,1.50433898 16.3049837,1.99974986 17.9878268,2.98153888 C19.6808824,3.96917262 21.0222631,5.30630379 22.0064134,6.98859995 C22.9905637,8.67061001 23.4825163,10.5031929 23.4825163,12.486267 C23.4825163,14.4694228 22.9937908,16.3174145 22.0066993,18.011727 Z" id="Shape"></path>
            <path d="M13.6549764,12.8629162 L13.6549764,5.76710379 C13.6549764,5.34249068 13.2594505,5 12.8054513,5 C12.3808638,5 12,5.34249068 12,5.76710379 L12,12.9724673 C12,12.9862227 12.0293679,13.041162 12.0293679,13.0821004 C12,13.3287133 12.0734417,13.5341832 12.2490365,13.6987146 L16.6280953,17.794438 C16.921118,18.0685207 17.4628707,18.0685207 17.7556746,17.794438 C18.0924209,17.479417 18.0702746,17.0223398 17.7556746,16.7259867 L13.6549764,12.8629162 Z" id="Shape"></path>
        </g>
        <g id="phone-call-(4)-copy-2" transform="translate(162.000000, 7.000000)" fill="#92C2FA" fill-rule="nonzero">
            <path d="M16.8362654,11.922043 C16.399733,11.4695341 15.873194,11.2275986 15.3151526,11.2275986 C14.7616115,11.2275986 14.2305721,11.4650538 13.7760384,11.9175627 L12.353933,13.328853 C12.2369243,13.266129 12.1199156,13.2078853 12.0074073,13.1496416 C11.8453953,13.0689964 11.6923839,12.9928315 11.5618742,12.9121864 C10.2297755,12.0698925 9.01918568,10.9722222 7.85809958,9.55197133 C7.29555786,8.84408602 6.91752983,8.24820789 6.64300947,7.64336918 C7.01203683,7.30734767 7.3540622,6.9578853 7.6870869,6.6218638 C7.81309624,6.49641577 7.93910558,6.36648746 8.06511493,6.24103943 C9.01018501,5.30017921 9.01018501,4.08154122 8.06511493,3.140681 L6.83652382,1.91756272 C6.69701347,1.77867384 6.55300279,1.63530466 6.41799278,1.49193548 C6.14797276,1.21415771 5.86445173,0.927419355 5.57193004,0.658602151 C5.13539767,0.228494624 4.61335895,0 4.06431824,0 C3.51527752,0 2.98423814,0.228494624 2.53420477,0.658602151 C2.52970443,0.663082437 2.52970443,0.663082437 2.5252041,0.667562724 L0.995090629,2.20430108 C0.41904791,2.77777778 0.0905235474,3.47670251 0.0185182076,4.28763441 C-0.089489802,5.59587814 0.297538899,6.81451613 0.594560926,7.61200717 C1.32361499,9.56989247 2.41269576,11.3844086 4.03731623,13.328853 C6.00846241,15.672043 8.38013829,17.5224014 11.0893392,18.8261649 C12.124416,19.3145161 13.5060184,19.8924731 15.0496329,19.9910394 C15.1441399,19.9955197 15.2431472,20 15.3331539,20 C16.372731,20 17.2457958,19.6281362 17.9298465,18.8888889 C17.9343468,18.8799283 17.9433475,18.875448 17.9478478,18.8664875 C18.1818652,18.5842294 18.4518852,18.328853 18.7354062,18.0555556 C18.9289206,17.8718638 19.1269353,17.6792115 19.3204496,17.4775986 C19.7659826,17.016129 20,16.4784946 20,15.9274194 C20,15.3718638 19.7614823,14.8387097 19.3069486,14.390681 L16.8362654,11.922043 Z M18.4473849,16.6397849 C18.4428845,16.6397849 18.4428845,16.6442652 18.4473849,16.6397849 C18.2718718,16.827957 18.0918585,16.9982079 17.8983441,17.1863799 C17.6058225,17.4641577 17.3088004,17.7553763 17.0297797,18.0824373 C16.575246,18.5663082 16.0397063,18.7948029 15.3376542,18.7948029 C15.2701492,18.7948029 15.1981439,18.7948029 15.1306389,18.7903226 C13.7940398,18.7051971 12.5519477,18.1854839 11.6203786,17.7419355 C9.07318969,16.5143369 6.83652382,14.7715054 4.97788599,12.562724 C3.44327218,10.7213262 2.41719609,9.0188172 1.7376457,7.19086022 C1.31911466,6.07526882 1.16610331,5.20609319 1.23360832,4.38620072 C1.27861165,3.86200717 1.48112667,3.42741935 1.85465437,3.05555556 L3.38926818,1.52777778 C3.60978453,1.32168459 3.84380188,1.20967742 4.0733189,1.20967742 C4.35683993,1.20967742 4.58635695,1.37992832 4.73036763,1.52329749 C4.73486796,1.52777778 4.7393683,1.53225806 4.74386863,1.53673835 C5.01838899,1.7921147 5.27940835,2.05645161 5.5539287,2.33870968 C5.69343905,2.48207885 5.83744973,2.62544803 5.98146041,2.77329749 L7.21005152,3.99641577 C7.6870869,4.47132616 7.6870869,4.91039427 7.21005152,5.38530466 C7.07954184,5.51523297 6.9535325,5.64516129 6.82302282,5.77060932 C6.44499478,6.15591398 6.08496809,6.51433692 5.69343905,6.86379928 C5.68443838,6.87275986 5.67543772,6.87724014 5.67093738,6.88620072 C5.28390868,7.27150538 5.35591402,7.64784946 5.43692003,7.90322581 C5.44142036,7.91666667 5.44592069,7.93010753 5.45042103,7.94354839 C5.76994472,8.71415771 6.2199781,9.43996416 6.90402883,10.3046595 L6.90852916,10.3091398 C8.15062127,11.8324373 9.46021839,13.0197133 10.9048255,13.9292115 C11.0893392,14.0456989 11.2783532,14.1397849 11.4583666,14.2293907 C11.6203786,14.3100358 11.7733899,14.3862007 11.9038996,14.4668459 C11.9219009,14.4758065 11.9399023,14.4892473 11.9579036,14.4982079 C12.110915,14.5743728 12.2549256,14.6102151 12.4034367,14.6102151 C12.7769644,14.6102151 13.0109817,14.3772401 13.0874874,14.3010753 L14.6266015,12.7688172 C14.7796129,12.6164875 15.0226309,12.4327957 15.3061519,12.4327957 C15.5851726,12.4327957 15.8146896,12.6075269 15.9542,12.7598566 C15.9587003,12.7643369 15.9587003,12.7643369 15.9632006,12.7688172 L18.4428845,15.2374552 C18.9064189,15.6944444 18.9064189,16.1648746 18.4473849,16.6397849 Z" id="Shape"></path>
        </g>
        <g id="envelope-(2)" transform="translate(197.000000, 11.000000)" fill="#92C2FA" fill-rule="nonzero">
            <path d="M18.1103659,0.0304878049 L2.52256098,0.0304878049 C1.13109756,0.0304878049 0,1.10772358 0,2.43292683 L0,12.5792683 C0,13.9044715 1.13109756,14.9817073 2.52256098,14.9817073 L18.1060976,14.9817073 C19.497561,14.9817073 20.6286585,13.9044715 20.6286585,12.5792683 L20.6286585,2.43699187 C20.6329268,1.11178862 19.5018293,0.0304878049 18.1103659,0.0304878049 Z M19.4804878,12.5792683 C19.4804878,13.2987805 18.8658537,13.8841463 18.1103659,13.8841463 L2.52256098,13.8841463 C1.76707317,13.8841463 1.15243902,13.2987805 1.15243902,12.5792683 L1.15243902,2.43699187 C1.15243902,1.71747967 1.76707317,1.13211382 2.52256098,1.13211382 L18.1060976,1.13211382 C18.8615854,1.13211382 19.4762195,1.71747967 19.4762195,2.43699187 L19.4762195,12.5792683 L19.4804878,12.5792683 Z" id="Shape"></path>
            <path d="M13.0097561,7.3800813 L18.054878,3.07113821 C18.2896341,2.86788618 18.3109756,2.52235772 18.097561,2.29471545 C17.8841463,2.07113821 17.5213415,2.05081301 17.2823171,2.25406504 L10.325,8.20121951 L8.96768293,7.04674797 C8.96341463,7.04268293 8.95914634,7.03861789 8.95914634,7.03455285 C8.92926829,7.00609756 8.89939024,6.98170732 8.8652439,6.95731707 L3.34207317,2.25 C3.10304878,2.04674797 2.7402439,2.06707317 2.52682927,2.29471545 C2.31341463,2.52235772 2.3347561,2.86788618 2.57378049,3.07113821 L7.67865854,7.41666667 L2.59512195,11.949187 C2.36463415,12.1565041 2.35182927,12.5020325 2.5695122,12.7256098 C2.6847561,12.8394309 2.83841463,12.9004065 2.99207317,12.9004065 C3.13292683,12.9004065 3.27378049,12.851626 3.3847561,12.754065 L8.54512195,8.15650407 L9.94512195,9.34756098 C10.0560976,9.44105691 10.1926829,9.48577236 10.3292683,9.48577236 C10.4658537,9.48577236 10.6067073,9.43699187 10.7134146,9.34349593 L12.1518293,8.11585366 L17.2823171,12.7581301 C17.3932927,12.8597561 17.5384146,12.9085366 17.6792683,12.9085366 C17.8329268,12.9085366 17.9823171,12.851626 18.097561,12.7378049 C18.3152439,12.5182927 18.3067073,12.1686992 18.0762195,11.9613821 L13.0097561,7.3800813 Z" id="Shape"></path>
        </g>
    </g>
</svg>